<?xml version="1.0" encoding="UTF-8"?>
<svg width="60px" height="84px" viewBox="0 0 60 84" version="1.1" xmlns="http://www.w3.org/2000/svg" xmlns:xlink="http://www.w3.org/1999/xlink">
    <!-- Generator: sketchtool 62 (101010) - https://sketch.com -->
    <title>FD627561-95E0-4D13-979B-8A638B2122E4</title>
    <desc>Created with sketchtool.</desc>
    <g id="Artboards" stroke="none" stroke-width="1" fill="none" fill-rule="evenodd">
        <g id="Pilisvorosvar.hu-Desktop-Home---Lakossagi" transform="translate(-303.000000, -11.000000)" fill-rule="nonzero">
            <g id="Nav" transform="translate(250.000000, 5.000000)">
                <g id="Main-Nav" transform="translate(47.000000, 0.000000)">
                    <g id="Pilisvorosvar-vektor-logo-rgb" transform="translate(6.000000, 6.000000)">
                        <g>
                            <path d="M35.9431193,12.7808955 C35.9908257,12.4423881 35.9944954,12.2041791 35.9321101,12.1361194 L32.5633028,11.4913433 C35.1633028,8.95343284 33.6678899,3.52477612 33.6678899,3.52477612 L35.1633028,2.58626866 L32.5633028,1.33791045 L27.3614679,1.33791045 C27.3614679,1.33791045 24.7614679,1.33791045 24.7614679,6.41552239 L27.3614679,6.41552239 C29.9614679,8.95343284 24.7614679,11.4931343 24.7614679,11.4931343 L24.746789,12.7826866 L1.3559633,12.7826866 L1.3559633,54.1379104 C1.3559633,69.84 14.1633028,82.5707463 29.9633028,82.5707463 C45.7633028,82.5707463 58.5688073,69.838209 58.5688073,54.1361194 L58.5688073,12.7808955 L35.9431193,12.7808955 Z" id="Path" fill="#FFFFFF"></path>
                            <polygon id="Path" fill="#214897" points="2.64036697 53.4483582 0.071559633 53.4483582 0.071559633 12.7755224 11.7577982 12.7755224 11.7577982 15.2829851 2.64036697 15.2829851"></polygon>
                            <polygon id="Path" fill="#214897" points="59.853211 53.4483582 57.2844037 53.4483582 57.2844037 15.2829851 48.1669725 15.2829851 48.1669725 12.7755224 59.853211 12.7755224"></polygon>
                            <path d="M37.7633028,81.2829851 C37.053211,81.2829851 36.4788991,80.7223881 36.4788991,80.0292537 L36.4788991,61.6262687 C36.4788991,61.6173134 36.4550459,60.1074627 35.6183486,58.6620896 C34.5577982,56.8280597 32.6550459,55.8985075 29.9614679,55.8985075 C27.2678899,55.8985075 25.3651376,56.8280597 24.3045872,58.6620896 C23.4678899,60.1074627 23.4440367,61.6173134 23.4440367,61.6316418 L23.4440367,80.0292537 C23.4440367,80.7223881 22.8697248,81.2829851 22.159633,81.2829851 C21.4495413,81.2829851 20.8752294,80.7223881 20.8752294,80.0292537 L20.8752294,61.6262687 C20.8752294,61.5438806 20.9798165,53.3910448 29.9614679,53.3910448 C38.9431193,53.3910448 39.0477064,61.5438806 39.0477064,61.6262687 L39.0477064,80.0310448 C39.0477064,80.7223881 38.4733945,81.2829851 37.7633028,81.2829851 Z" id="Path" fill="#EF382B"></path>
                            <path d="M46.8495413,53.3910448 L46.8495413,48.2829851 L48.1651376,48.2829851 C48.5614679,48.2829851 48.933945,48.1056716 49.1779817,47.801194 C49.4220183,47.4967164 49.5082569,47.1008955 49.4110092,46.7247761 L46.8110092,36.5713433 C46.6678899,36.0125373 46.1541284,35.6220896 45.5651376,35.6220896 L14.359633,35.6220896 C13.7706422,35.6220896 13.2568807,36.0143284 13.1137615,36.5713433 L10.5137615,46.7247761 C10.4183486,47.0991045 10.5045872,47.4967164 10.746789,47.801194 C10.9908257,48.1056716 11.3633028,48.2829851 11.759633,48.2829851 L13.0752294,48.2829851 L13.0752294,53.3910448 L0.071559633,53.3910448 L0.071559633,54.6447761 C0.071559633,70.7337313 13.4807339,83.8226866 29.9633028,83.8226866 C46.4458716,83.8226866 59.853211,70.7337313 59.853211,54.6447761 L59.853211,53.3910448 L46.8495413,53.3910448 Z M15.3614679,38.1295522 L44.5633028,38.1295522 L46.5211009,45.7755224 L45.5651376,45.7755224 L14.359633,45.7755224 L13.4036697,45.7755224 L15.3614679,38.1295522 Z M29.9614679,81.3152239 C15.3266055,81.3152239 3.3412844,70.0262687 2.66972477,55.8985075 L13.0733945,55.8985075 L13.0733945,66.0519403 L15.6422018,66.0519403 L15.6422018,48.2829851 L44.2807339,48.2829851 L44.2807339,66.0519403 L46.8495413,66.0519403 L46.8495413,55.8985075 L57.253211,55.8985075 C56.5816514,70.0244776 44.5981651,81.3152239 29.9614679,81.3152239 Z" id="Shape" fill="#EF382B"></path>
                            <path d="M23.8165138,13.2644776 C23.3541284,13.2644776 22.8990826,13.1856716 22.4678899,13.0226866 C20.4055046,12.2453731 19.7816514,9.99761194 19.6238532,8.22985075 L11.559633,6.99402985 L11.9577982,4.51701493 L21.0605505,5.91223881 C21.6862385,6.00716418 22.1449541,6.53373134 22.1449541,7.15164179 C22.1449541,9.06985075 22.612844,10.3898507 23.3944954,10.6853731 C24.0110092,10.918209 24.9577982,10.5510448 25.6458716,9.81313433 C25.8972477,9.54268657 26.5816514,8.70089552 26.4366972,7.66925373 L24.7614679,7.66925373 C24.0642202,7.66925373 23.4954128,7.12656716 23.4770642,6.44597015 C23.4678899,6.09492537 23.440367,2.97492537 25.1853211,1.22865672 C25.933945,0.48 26.9100917,0.0841791045 28.0110092,0.0841791045 L35.1633028,0.0841791045 L35.1633028,2.59164179 L28.0110092,2.59164179 C27.5981651,2.59164179 27.293578,2.70985075 27.0256881,2.97671642 C26.5211009,3.48 26.2642202,4.38447761 26.1412844,5.16179104 L27.359633,5.16179104 C27.8458716,5.16179104 28.2917431,5.43044776 28.5082569,5.85492537 C29.4477064,7.69074627 29.0788991,9.85432836 27.5431193,11.5020896 C26.4825688,12.639403 25.1192661,13.2644776 23.8165138,13.2644776 Z" id="Path" fill="#A7B2BE"></path>
                            <path d="M36.2036697,12.9653731 C34.4073394,12.9653731 32.7174312,12.0859701 32.4623853,11.9480597 C32.1633028,11.7850746 31.9431193,11.5146269 31.8513761,11.1940299 C31.7577982,10.8734328 31.8,10.5295522 31.9669725,10.239403 C31.9816514,10.2125373 33.7045872,7.11223881 31.8330275,5.28716418 L33.6495413,3.51402985 C35.0238532,4.85552239 35.5431193,6.6841791 35.1522936,8.80119403 C35.0550459,9.3241791 34.9155963,9.79880597 34.7724771,10.198209 C35.5633028,10.4525373 36.506422,10.6029851 37.0513761,10.2626866 C37.6330275,9.90089552 37.8917431,8.82626866 37.7798165,7.23761194 C37.733945,6.58925373 38.2036697,6.01432836 38.8623853,5.91402985 L47.9651376,4.51880597 L48.3633028,6.9958209 L40.3688073,8.22089552 C40.3082569,10.2214925 39.6568807,11.6185075 38.4256881,12.3814925 C37.733945,12.8095522 36.959633,12.9653731 36.2036697,12.9653731 Z" id="Path" fill="#A7B2BE"></path>
                            <path d="M21.7009174,28.0889552 L20.0201835,26.1940299 L25.7706422,21.3331343 C24.6899083,19.081791 22.440367,13.4901493 24.9981651,10.4095522 L26.9944954,11.9874627 C25.2990826,14.0292537 27.5688073,19.3504478 28.4972477,21.0537313 C28.7779817,21.5695522 28.6568807,22.2089552 28.2055046,22.5922388 L21.7009174,28.0889552 Z" id="Path" fill="#A7B2BE"></path>
                            <path d="M38.2238532,28.0889552 L31.7229358,22.5922388 C31.3669725,22.2913433 31.2091743,21.8256716 31.3082569,21.3779104 C31.3376147,21.2489552 32.0348624,18.1862687 33.8733945,15.8113433 L35.9229358,17.3229851 C34.9027523,18.641194 34.2954128,20.2907463 34.012844,21.2113433 L39.906422,26.1922388 L38.2238532,28.0889552 Z" id="Path" fill="#A7B2BE"></path>
                            <polygon id="Path" fill="#A7B2BE" points="31.6550459 30.1468657 29.9614679 28.4955224 28.2697248 30.1468657 26.453211 28.3737313 29.9614679 24.9492537 33.4715596 28.3737313"></polygon>
                            <path d="M17.533945,22.7659701 L16.3853211,20.5235821 L20.1816514,18.6698507 C19.5431193,17.7850746 18.787156,16.5492537 18.4513761,15.2829851 L14.3577982,15.2829851 L14.3577982,12.7755224 L19.559633,12.7755224 C20.2697248,12.7755224 20.8440367,13.3361194 20.8440367,14.0292537 C20.8440367,15.4531343 22.5302752,17.6256716 23.1211009,18.2740299 C23.387156,18.5659701 23.4972477,18.96 23.4220183,19.3432836 C23.346789,19.7265672 23.0917431,20.0525373 22.7357798,20.2280597 L17.533945,22.7659701 Z" id="Path" fill="#A7B2BE"></path>
                            <path d="M42.3908257,22.7659701 L37.1889908,20.2280597 C36.8311927,20.0543284 36.5779817,19.7265672 36.5027523,19.3432836 C36.4275229,18.96 36.5394495,18.5641791 36.8036697,18.2740299 C37.6825688,17.3032836 39.0807339,15.2937313 39.0807339,14.0292537 C39.0807339,13.3361194 39.6550459,12.7755224 40.3651376,12.7755224 L45.5669725,12.7755224 L45.5669725,15.2829851 L41.4733945,15.2829851 C41.1376147,16.5492537 40.3816514,17.7850746 39.7431193,18.6698507 L43.5412844,20.5235821 L42.3908257,22.7659701 Z" id="Path" fill="#A7B2BE"></path>
                        </g>
                    </g>
                </g>
            </g>
        </g>
    </g>
</svg>